…
  estimate_att
}

Now let’s try this estimator on a dataset (this one comes from the book Causal Inference for the Brave and True):

trainees_df <- read_csv("https://github.com/matheusfacure/python-causality-handbook/raw/master/causal-inference-for-the-brave-and-true/data/trainees.csv",
                        show_col_types=FALSE) %>% 
  rename(trainee = trainees)

trainees_df

## # A tibble: 40 x 4
##     unit trainee   age earnings
##    <dbl>   <dbl> <dbl>    <dbl>
##  1     1       1    28    17700
##  2     2       1    34    10200
##  3     3       1    29    14400
##  4     4       1    25    20800
##  5     5       1    29     6100
##  6     6       1    23    28600
##  7     7       1    33    21900
##  8     8       1    27    28800
##  9     9       1    31    20300
## 10    10       1    26    28100
## # ... with 30 more rows
…
treated_matched <- treated_df %>%
  left_join(control_df, by = "age",
                     suffix = c("_i", "_j"))

control_matched <- control_df %>%
  left_join(treated_df, by = "age",
            suffix = c("_i", "_j"))
    
bind_rows(
  control_matched,
  treated_matched
)

## # A tibble: 50 x 7
##    unit_i trainee_i   age earnings_i unit_j trainee_j earnings_j
##     <dbl>     <dbl> <dbl>      <dbl>  <dbl>     <dbl>      <dbl>
##  1     20         0    43      20900     16         1      10700
##  2     21         0    50      31000     NA        NA         NA
##  3     22         0    30      21000     NA        NA         NA
##  4     23         0    27       9300      8         1      28800
##  5     23         0    27       9300     12         1      14300
##  6     23         0    27       9300     18         1      10700
##  7     24         0    54      41100     NA        NA         NA
##  8     25         0    48      29800     NA        NA         NA
##  9     26         0    39      42000     NA        NA         NA
## 10     27         0    28       8800      1         1      17700
## # ... with 40 more rows
…
}

Again, we’re going to try the estimator with some data. This time is a dataset measuring the effects of a new medication on the recovery period for some patients, measured in days (this dataset also comes from the book Causal Inference for The Brave and True).

medicine_impact_recovery <- 
  read_csv("https://raw.githubusercontent.com/matheusfacure/python-causality-handbook/master/causal-inference-for-the-brave-and-true/data/medicine_impact_recovery.csv",
           show_col_types = FALSE)

medicine_impact_recovery

## # A tibble: 20,000 x 5
##      sex   age severity medication recovery
##    <dbl> <dbl>    <dbl>      <dbl>    <dbl>
##  1     0  35.0    0.888          1       31
##  2     1  41.6    0.900          1       49
##  3     1  28.1    0.486          0       38
##  4     1  36.4    0.323          0       35
##  5     0  25.1    0.209          0       15
##  6     0  23.2    0.203          0       14
##  7     0  17.7    0.205          0       12
##  8     0  48.6    0.833          1       38
##  9     0  30.0    0.540          0       30
## 10     0  32.2    0.706          0       36
## # ... with 19,990 more rows
…
