…
perms <- t(combn(ri_fischer_null$id_unit, 4)) %>% asplit(1) 

perms_df <- 
  tibble(treated_units = perms) %>% 
  transmute(id_perm = row_number(),
            treated_units = map(treated_units, unlist))

ri_permuted <- 
  crossing(perms_df, ri_fischer_null) %>% 
  mutate(d = map2_dbl(id_unit, treated_units, ~.x %in% .y))

ri_permuted

## # A tibble: 560 x 8
##    id_perm treated_units name       d     y    y0    y1 id_unit
##      <int> <list>        <chr>  <dbl> <dbl> <dbl> <dbl>   <int>
##  1       1 <int [4]>     Andy       1    10    10    10       1
##  2       1 <int [4]>     Ben        1     5     5     5       2
##  3       1 <int [4]>     Chad       1    16    16    16       3
##  4       1 <int [4]>     Daniel     1     3     3     3       4
##  5       1 <int [4]>     Edith      0     5     5     5       5
##  6       1 <int [4]>     Frank      0     7     7     7       6
##  7       1 <int [4]>     George     0     8     8     8       7
##  8       1 <int [4]>     Hank       0    10    10    10       8
##  9       2 <int [4]>     Andy       1    10    10    10       1
## 10       2 <int [4]>     Ben        1     5     5     5       2
## # ... with 550 more rows
…
Para cada permutación, simulamos los valores de \(Y\) en base a la hipótesis nula escogida previamente. Para la sharp null de Fischer literalmente no hay que hacer nada, ya que al plantear esta que \(Y_i=Y_i^0=Y_i^1\), el vector \(Y\) se mantiene constante en cada permutación de \(D\) (sin embargo, si nuestra sharp null fuera algo como \(\delta_i=1\) entonces sí habría que cambiar los valores de \(Y\) con cada permutación).

Calcularemos el valor del estadístico del test (el SDO en nuestro caso) para cada una de estas permutaciones y guardamos su valor.

perms_stats <- 
  ri_permuted %>%
  group_by(id_perm) %>%
  summarise(te1 = mean(y[d == 1]),
            te0 = mean(y[d == 0]),
            sdo = te1 - te0)

perms_stats %>% 
  select(id_perm, sdo)

## # A tibble: 70 x 2
##    id_perm   sdo
##      <int> <dbl>
##  1       1   1  
##  2       2   2  
##  3       3   3  
##  4       4   3.5
##  5       5   4.5
##  6       6  -4.5
##  7       7  -3.5
##  8       8  -3  
##  9       9  -2  
## 10      10  -2.5
## # ... with 60 more rows
…
Se crea un ranking descendiente de los estadísticos de test obtenidos en las permutaciones (el con mayor valor tiene ranking 1 y el con menor valor tiene ranking N). Para los estadísticos “empatados” en un mismo valor, su ranking corresponde el máximo de los rankings originales de los estadísticos que comparten tal valor (por ejemplo, si tres estadísticos son iguales y tienen rankings 2, 3, y 4, todos ellos quedan con ranking igual a 4).

perms_ranked <- perms_stats %>%
  # Igual que antes, se aplica valor absoluto para tener un test de dos colas
  mutate(abs_sdo = abs(sdo)) %>% 
  select(id_perm, abs_sdo) %>% 
  arrange(desc(abs_sdo)) %>% 
  mutate(rank = row_number(desc(abs_sdo))) %>% 
  group_by(abs_sdo) %>% 
  mutate(new_rank = max(rank))

perms_ranked

## # A tibble: 70 x 4
## # Groups:   abs_sdo [11]
##    id_perm abs_sdo  rank new_rank
##      <int>   <dbl> <int>    <int>
##  1      25     6       1        2
##  2      46     6       2        2
##  3      24     5.5     3        4
##  4      47     5.5     4        4
##  5       5     4.5     5       12
##  6       6     4.5     6       12
##  7      22     4.5     7       12
##  8      23     4.5     8       12
##  9      48     4.5     9       12
## 10      49     4.5    10       12
## # ... with 60 more rows
…
