…
perms <- t(combn(ri_fischer_null$id_unit, 4)) %>% asplit(1) 

perms_df <- 
  tibble(treated_units = perms) %>% 
  transmute(id_perm = row_number(),
            treated_units = map(treated_units, unlist))

ri_permuted <- 
  crossing(perms_df, ri_fischer_null) %>% 
  mutate(d = map2_dbl(id_unit, treated_units, ~.x %in% .y))

ri_permuted

## # A tibble: 560 x 8
##    id_perm treated_units name       d     y    y0    y1 id_unit
##      <int> <list>        <chr>  <dbl> <dbl> <dbl> <dbl>   <int>
##  1       1 <int [4]>     Andy       1    10    10    10       1
##  2       1 <int [4]>     Ben        1     5     5     5       2
##  3       1 <int [4]>     Chad       1    16    16    16       3
##  4       1 <int [4]>     Daniel     1     3     3     3       4
##  5       1 <int [4]>     Edith      0     5     5     5       5
##  6       1 <int [4]>     Frank      0     7     7     7       6
##  7       1 <int [4]>     George     0     8     8     8       7
##  8       1 <int [4]>     Hank       0    10    10    10       8
##  9       2 <int [4]>     Andy       1    10    10    10       1
## 10       2 <int [4]>     Ben        1     5     5     5       2
## # ... with 550 more rows
…
For each permutation, we simulate the values of \(Y\) based on the previously chosen sharp null and the now complete potential outcomes columns. For Fischer’s sharp null, we don’t have to do anything because it states that \(Y_i=Y_i^0=Y_i^1\), which leads to the vector \(Y\) remaining unchanged no matter the values in \(D\). However, if our sharp null was something like \(\delta_i=1\), then it would be necessary to update/change the values of \(Y\) in each permutation.

We compute the test statistic value (the SDO in our example) for each permutation and then save those values.

perms_stats <- 
  ri_permuted %>%
  group_by(id_perm) %>%
  summarise(te1 = mean(y[d == 1]),
            te0 = mean(y[d == 0]),
            sdo = te1 - te0)

perms_stats %>% 
  select(id_perm, sdo)

## # A tibble: 70 x 2
##    id_perm   sdo
##      <int> <dbl>
##  1       1   1  
##  2       2   2  
##  3       3   3  
##  4       4   3.5
##  5       5   4.5
##  6       6  -4.5
##  7       7  -3.5
##  8       8  -3  
##  9       9  -2  
## 10      10  -2.5
## # ... with 60 more rows
…
We create a descending ranking with the test statistics we obtained through the permutations (the highest value gets a ranking equal to 1, the lowest value gets a ranking equal to N). These rankings are assigned through a row_number()-like algorithm. When there are ties, the original ranking of the tied statistics is replaced with the maximum ranking inside that group. For instance, if three statistics have the same value and their original rankings are 2, 3 and 4, all of them end up with a ranking equal to 4.

perms_ranked <- perms_stats %>%
  # Just like before, we apply `abs()` to get a two tailed test
  mutate(abs_sdo = abs(sdo)) %>% 
  select(id_perm, abs_sdo) %>% 
  arrange(desc(abs_sdo)) %>% 
  mutate(rank = row_number(desc(abs_sdo))) %>% 
  group_by(abs_sdo) %>% 
  mutate(new_rank = max(rank))

perms_ranked

## # A tibble: 70 x 4
## # Groups:   abs_sdo [11]
##    id_perm abs_sdo  rank new_rank
##      <int>   <dbl> <int>    <int>
##  1      25     6       1        2
##  2      46     6       2        2
##  3      24     5.5     3        4
##  4      47     5.5     4        4
##  5       5     4.5     5       12
##  6       6     4.5     6       12
##  7      22     4.5     7       12
##  8      23     4.5     8       12
##  9      48     4.5     9       12
## 10      49     4.5    10       12
## # ... with 60 more rows
…
